/home/npst/Avinash/Projects/NPST/Tmp/demo/src/main/java/com/example/demo/service/impl/FeedServiceImpl.java
/home/npst/Avinash/Projects/NPST/Tmp/demo/src/main/java/com/example/demo/controller/DemoController.java
/home/npst/Avinash/Projects/NPST/Tmp/demo/src/main/java/com/example/demo/DemoApplication.java
/home/npst/Avinash/Projects/NPST/Tmp/demo/src/main/java/com/example/demo/service/FeedService.java
/home/npst/Avinash/Projects/NPST/Tmp/demo/src/main/java/com/example/demo/config/HttpConnect.java
/home/npst/Avinash/Projects/NPST/Tmp/demo/src/main/java/com/example/demo/dto/FeedDTO.java
